{"content":[{"id":152538,"applicant":{"fullName":"Васильев Павел","userName":"director","email":"director@mail.com","location":"location","address":"152 Скотопрогонная ул. 13","phone":"+79778334486","mobilePhone":"8 (000) 123-45-67","workPhone":"+79778334486","organization":"organization","id":1010},"director":{"fullName":"Васильев Павел1","userName":"director_1","email":"director@mail.com","location":"location","address":"152 Скотопрогонная ул. 13","phone":"+79778334486","mobilePhone":"8 (000) 123-45-67","workPhone":"+79778334486","organization":"organization","id":101122},"header":"Кто-то постоянно съедает съедает мои печеньки","text":"Кто-то постоянно съедает съедает мои печеньки","createDate":1582617567886,"lastEditDate":1582617567890,"ticketState":"Новый","ticketStateId":-1,"serviceId":2933,"syncMask":"PORTAL_ONLY","location":"152 Скотопрогонная ул. 13","address":"152 Скотопрогонная ул. 13","categories":["Технологическое оборудование","Климатическое оборудование","Кондиционер"],"category1":"Технологическое оборудование","category2":"Климатическое оборудование","category3":"Кондиционер","openCommunications":0,"totalCommunications":0,"actions":[]},{"id":152537,"applicant":{"fullName":"Васильев Павел","userName":"director","email":"director@mail.com","location":"location","address":"152 Скотопрогонная ул. 13","phone":"+79778334486","mobilePhone":"8 (000) 123-45-67","workPhone":"+79778334486","organization":"organization","id":1010},"director":{"fullName":"Васильев Павел1","userName":"director_1","email":"director@mail.com","location":"location","address":"152 Скотопрогонная ул. 13","phone":"+79778334486","mobilePhone":"8 (000) 123-45-67","workPhone":"+79778334486","organization":"organization","id":101122},"header":"Врот мне тапки, It's Alive","text":"Врот мне тапки, It's Alive","createDate":1582617541917,"lastEditDate":1582617541921,"ticketState":"Новый","ticketStateId":-1,"serviceId":2880,"syncMask":"PORTAL_ONLY","location":"152 Скотопрогонная ул. 13","address":"152 Скотопрогонная ул. 13","categories":["Инженерия","Работы на прилегающей территории","Асфальтировка, парковка, подъездные пути"],"category1":"Инженерия","category2":"Работы на прилегающей территории","category3":"Асфальтировка, парковка, подъездные пути","openCommunications":0,"totalCommunications":0,"actions":[]},{"id":152536,"applicant":{"fullName":"Игорев Игорь","userName":"engineer","email":"engineer@gmail.com","location":"Люберцы","phone":"8 (000) 123-45-67","mobilePhone":"8 (000) 123-45-67","id":103},"director":{"fullName":"Васильев Павел1","userName":"director_1","email":"director@mail.com","location":"location","address":"152 Скотопрогонная ул. 13","phone":"+79778334486","mobilePhone":"8 (000) 123-45-67","workPhone":"+79778334486","organization":"organization","id":101122},"header":"Пресс","text":"DEBUGGER","createDate":1582616119807,"lastEditDate":1582616119816,"ticketState":"Новый","ticketStateId":-1,"serviceId":2906,"syncMask":"PORTAL_ONLY","location":"152 Скотопрогонная ул. 13","address":"152 Скотопрогонная ул. 13","categories":["Технологическое оборудование","Инженерное оборудование","Пресс"],"category1":"Технологическое оборудование","category2":"Инженерное оборудование","category3":"Пресс","openCommunications":0,"totalCommunications":0,"actions":[]},{"id":152535,"applicant":{"fullName":"Игорев Игорь","userName":"engineer","email":"engineer@gmail.com","location":"Люберцы","phone":"8 (000) 123-45-67","mobilePhone":"8 (000) 123-45-67","id":103},"director":{"fullName":"Васильев Павел1","userName":"director_1","email":"director@mail.com","location":"location","address":"152 Скотопрогонная ул. 13","phone":"+79778334486","mobilePhone":"8 (000) 123-45-67","workPhone":"+79778334486","organization":"organization","id":101122},"header":"Остекление фасада","text":"DEBUGGER","createDate":1582616114667,"lastEditDate":1582616114677,"ticketState":"Новый","ticketStateId":-1,"serviceId":2874,"syncMask":"PORTAL_ONLY","location":"152 Скотопрогонная ул. 13","address":"152 Скотопрогонная ул. 13","categories":["Инженерия","Части здания","Остекление фасада"],"category1":"Инженерия","category2":"Части здания","category3":"Остекление фасада","openCommunications":0,"totalCommunications":0,"actions":[]},{"id":152532,"applicant":{"fullName":"Игорев Игорь","userName":"engineer","email":"engineer@gmail.com","location":"Люберцы","phone":"8 (000) 123-45-67","mobilePhone":"8 (000) 123-45-67","id":103},"director":{"fullName":"Васильев Павел1","userName":"director_1","email":"director@mail.com","location":"location","address":"152 Скотопрогонная ул. 13","phone":"+79778334486","mobilePhone":"8 (000) 123-45-67","workPhone":"+79778334486","organization":"organization","id":101122},"header":"Холодильная камера","text":"DEBUGGER","createDate":1582616100174,"lastEditDate":1582616100182,"ticketState":"Новый","ticketStateId":-1,"serviceId":2966,"viewed":true,"syncMask":"PORTAL_ONLY","location":"152 Скотопрогонная ул. 13","address":"152 Скотопрогонная ул. 13","categories":["Технологическое оборудование","Холодильное оборудование","Холодильная камера"],"category1":"Технологическое оборудование","category2":"Холодильное оборудование","category3":"Холодильная камера","openCommunications":0,"totalCommunications":0,"actions":[]},{"id":152530,"applicant":{"fullName":"Игорев Игорь","userName":"engineer","email":"engineer@gmail.com","location":"Люберцы","phone":"8 (000) 123-45-67","mobilePhone":"8 (000) 123-45-67","id":103},"director":{"fullName":"Васильев Павел1","userName":"director_1","email":"director@mail.com","location":"location","address":"152 Скотопрогонная ул. 13","phone":"+79778334486","mobilePhone":"8 (000) 123-45-67","workPhone":"+79778334486","organization":"organization","id":101122},"header":"Окна, двери","text":"DEBUGGER","createDate":1582616089695,"lastEditDate":1582616089700,"ticketState":"Новый","ticketStateId":-1,"serviceId":2861,"syncMask":"PORTAL_ONLY","location":"152 Скотопрогонная ул. 13","address":"152 Скотопрогонная ул. 13","categories":["Инженерия","Части здания","Окна, двери"],"category1":"Инженерия","category2":"Части здания","category3":"Окна, двери","openCommunications":0,"totalCommunications":0,"actions":[]},{"id":152528,"applicant":{"fullName":"Игорев Игорь","userName":"engineer","email":"engineer@gmail.com","location":"Люберцы","phone":"8 (000) 123-45-67","mobilePhone":"8 (000) 123-45-67","id":103},"director":{"fullName":"Васильев Павел1","userName":"director_1","email":"director@mail.com","location":"location","address":"152 Скотопрогонная ул. 13","phone":"+79778334486","mobilePhone":"8 (000) 123-45-67","workPhone":"+79778334486","organization":"organization","id":101122},"header":"Уборка прилегающей территории","text":"DEBUGGER","createDate":1582616079311,"lastEditDate":1582616079319,"ticketState":"Новый","ticketStateId":-1,"serviceId":2786,"syncMask":"PORTAL_ONLY","location":"152 Скотопрогонная ул. 13","address":"152 Скотопрогонная ул. 13","categories":["Экология","Уборка помещений и прилегающей территории","Уборка прилегающей территории"],"category1":"Экология","category2":"Уборка помещений и прилегающей территории","category3":"Уборка прилегающей территории","openCommunications":0,"totalCommunications":0,"actions":[]},{"id":152527,"applicant":{"fullName":"Игорев Игорь","userName":"engineer","email":"engineer@gmail.com","location":"Люберцы","phone":"8 (000) 123-45-67","mobilePhone":"8 (000) 123-45-67","id":103},"director":{"fullName":"Васильев Павел1","userName":"director_1","email":"director@mail.com","location":"location","address":"152 Скотопрогонная ул. 13","phone":"+79778334486","mobilePhone":"8 (000) 123-45-67","workPhone":"+79778334486","organization":"organization","id":101122},"header":"Икорный/Бытовой холодильник","text":"DEBUGGER","createDate":1582616074236,"lastEditDate":1582616074245,"ticketState":"Новый","ticketStateId":-1,"serviceId":2969,"syncMask":"PORTAL_ONLY","location":"152 Скотопрогонная ул. 13","address":"152 Скотопрогонная ул. 13","categories":["Технологическое оборудование","Холодильное оборудование","Икорный/Бытовой холодильник"],"category1":"Технологическое оборудование","category2":"Холодильное оборудование","category3":"Икорный/Бытовой холодильник","openCommunications":0,"totalCommunications":0,"actions":[]},{"id":152523,"applicant":{"fullName":"Васильев Павел","userName":"director","email":"director@mail.com","location":"location","address":"152 Скотопрогонная ул. 13","phone":"+79778334486","mobilePhone":"8 (000) 123-45-67","workPhone":"+79778334486","organization":"organization","id":1010},"director":{"fullName":"Васильев Павел1","userName":"director_1","email":"director@mail.com","location":"location","address":"152 Скотопрогонная ул. 13","phone":"+79778334486","mobilePhone":"8 (000) 123-45-67","workPhone":"+79778334486","organization":"organization","id":101122},"header":"Value4","text":"help5","createDate":1582612409725,"lastEditDate":1582612409728,"ticketState":"Новый","ticketStateId":-1,"serviceId":2996,"syncMask":"PORTAL_ONLY","location":"152 Скотопрогонная ул. 13","address":"152 Скотопрогонная ул. 13","categories":["Внешняя и внутренняя реклама","Наружная световая вывеска \"\"Пятерочка\"\""],"category1":"Внешняя и внутренняя реклама","category2":"Наружная световая вывеска \"\"Пятерочка\"\"","openCommunications":0,"totalCommunications":0,"actions":[]},{"id":152522,"applicant":{"fullName":"Васильев Павел","userName":"director","email":"director@mail.com","location":"location","address":"152 Скотопрогонная ул. 13","phone":"+79778334486","mobilePhone":"8 (000) 123-45-67","workPhone":"+79778334486","organization":"organization","id":1010},"director":{"fullName":"Васильев Павел1","userName":"director_1","email":"director@mail.com","location":"location","address":"152 Скотопрогонная ул. 13","phone":"+79778334486","mobilePhone":"8 (000) 123-45-67","workPhone":"+79778334486","organization":"organization","id":101122},"header":"Отсутствие замены ковровых покрытий (не приезжает машина)","text":"1231","createDate":1582611599050,"lastEditDate":1582611599053,"ticketState":"Новый","ticketStateId":-1,"serviceId":2815,"syncMask":"PORTAL_ONLY","location":"152 Скотопрогонная ул. 13","address":"152 Скотопрогонная ул. 13","categories":["Экология","Замена ковриков","Замена ковриков"],"category1":"Экология","category2":"Замена ковриков","category3":"Замена ковриков","openCommunications":0,"totalCommunications":0,"actions":[]}],"last":false,"totalPages":31,"totalElements":303,"numberOfElements":10,"sort":[{"direction":"DESC","property":"id","ignoreCase":false,"nullHandling":"NATIVE","descending":true,"ascending":false}],"first":true,"size":10,"number":0}